<svg class="bi bi-geo-alt" width="1em" height="1em" viewBox="0 0 16 16" fill="red" xmlns="http://www.w3.org/2000/svg">
  <path fill-rule="evenodd" d="M8 16s6-5.686 6-10A6 6 0 002 6c0 4.314 6 10 6 10zm0-7a3 3 0 100-6 3 3 0 000 6z" clip-rule="evenodd"/>
</svg>
